archive/riscv32i_module_dmem/sim.vcd
$date
	Mon Dec 30 17:08:43 2024
$end
$version
	Icarus Verilog
$end
$timescale
	1ps
$end
$scope module riscv32iTB $end
$var parameter 32 ! IDLE_LEN $end
$var parameter 32 " N_param $end
$var reg 1 # tb_clk $end
$var reg 1 $ tb_reset $end
$scope module dut $end
$var wire 1 % branch_taken $end
$var wire 1 # clk $end
$var wire 1 & i_en $end
$var wire 32 ' pc_o [31:0] $end
$var wire 1 $ reset $end
$var wire 1 ( we_pi $end
$var wire 32 ) writeData_pi [31:0] $end
$var wire 5 * rs2_stage2 [4:0] $end
$var wire 5 + rs2_stage1 [4:0] $end
$var wire 5 , rs2_o [4:0] $end
$var wire 5 - rs1_stage2 [4:0] $end
$var wire 5 . rs1_stage1 [4:0] $end
$var wire 5 / rs1_o [4:0] $end
$var wire 5 0 rd_stage2 [4:0] $end
$var wire 5 1 rd_stage1 [4:0] $end
$var wire 5 2 rd_o [4:0] $end
$var wire 1 3 pc_stage_2 $end
$var wire 32 4 pc_stage_1 [31:0] $end
$var wire 32 5 pc_stage_0 [31:0] $end
$var wire 32 6 pc_i [31:0] $end
$var wire 32 7 operand2_stage2 [31:0] $end
$var wire 32 8 operand2_stage1 [31:0] $end
$var wire 32 9 operand2_po [31:0] $end
$var wire 32 : operand1_stage2 [31:0] $end
$var wire 32 ; operand1_stage1 [31:0] $end
$var wire 32 < operand1_po [31:0] $end
$var wire 7 = opcode_o [6:0] $end
$var wire 32 > loaded_data [31:0] $end
$var wire 1 ? instruction_stage_2 $end
$var wire 32 @ instruction_stage_1 [31:0] $end
$var wire 32 A instruction_stage_0 [31:0] $end
$var wire 32 B instruction [31:0] $end
$var wire 32 C imm_stage2 [31:0] $end
$var wire 32 D imm_stage1 [31:0] $end
$var wire 32 E imm_o [31:0] $end
$var wire 7 F fun7_o [6:0] $end
$var wire 3 G fun3_o [2:0] $end
$var wire 32 H alu_result_2_stage2 [31:0] $end
$var wire 32 I alu_result_2 [31:0] $end
$var wire 32 J alu_result_1_stage2 [31:0] $end
$var wire 32 K alu_result_1 [31:0] $end
$var wire 64 L Single_Instruction_stage2 [63:0] $end
$var wire 64 M Single_Instruction_stage1 [63:0] $end
$var wire 64 N Single_Instruction_o [63:0] $end
$var wire 7 O INST_typ_o [6:0] $end
$var parameter 32 P N_param $end
$var reg 1 Q halt_i $end
$var reg 1 R isTakenBranch_i $end
$var reg 320 S pipeReg0 [319:0] $end
$var reg 320 T pipeReg1 [319:0] $end
$var reg 320 U pipeReg2 [319:0] $end
$var reg 320 V pipeReg3 [319:0] $end
$var reg 32 W targetPC_i [31:0] $end
$scope module dataMem $end
$var wire 64 X Single_Instruction [63:0] $end
$var wire 32 Y address [31:0] $end
$var wire 1 # clk $end
$var wire 32 Z loadData_w [31:0] $end
$var wire 32 [ raw_word [31:0] $end
$var wire 1 $ reset $end
$var wire 32 \ storeData [31:0] $end
$var wire 12 ] word_address [11:0] $end
$var wire 2 ^ byte_address [1:0] $end
$var parameter 32 _ mem_size $end
$var reg 32 ` loadData [31:0] $end
$var reg 4 a load_wire [3:0] $end
$var reg 4 b store_wire [3:0] $end
$var integer 32 c i [31:0] $end
$upscope $end
$scope module decode_debug $end
$var wire 7 d INST_typ_o [6:0] $end
$var wire 64 e Single_Instruction_o [63:0] $end
$var wire 3 f fun3_o [2:0] $end
$var wire 7 g fun7_o [6:0] $end
$var wire 1 # i_clk $end
$var wire 1 & i_en $end
$var wire 32 h imm_o [31:0] $end
$var wire 32 i instruction [31:0] $end
$var wire 4 j operand_amt_o [3:0] $end
$var wire 5 k rd_o [4:0] $end
$var wire 5 l rs1_o [4:0] $end
$var wire 5 m rs2_o [4:0] $end
$var wire 7 n opcode_o [6:0] $end
$var wire 7 o opcode [6:0] $end
$var parameter 32 p N_param $end
$var reg 7 q INST_typ [6:0] $end
$var reg 64 r Single_Instruction [63:0] $end
$var reg 3 s fun3 [2:0] $end
$var reg 7 t fun7 [6:0] $end
$var reg 32 u imm [31:0] $end
$var reg 4 v operand_amt [3:0] $end
$var reg 5 w rd [4:0] $end
$var reg 5 x rs1 [4:0] $end
$var reg 5 y rs2 [4:0] $end
$upscope $end
$scope module execute $end
$var wire 64 z Single_Instruction_i [63:0] $end
$var wire 1 # i_clk $end
$var wire 1 { i_en $end
$var wire 32 | imm_i [31:0] $end
$var wire 32 } imm_i_signed [31:0] $end
$var wire 32 ~ instruction [31:0] $end
$var wire 32 !" operand1_pi [31:0] $end
$var wire 32 "" operand1_pi_signed [31:0] $end
$var wire 32 #" operand2_pi [31:0] $end
$var wire 32 $" operand2_pi_signed [31:0] $end
$var wire 32 %" pc_i [31:0] $end
$var wire 5 &" rd_i [4:0] $end
$var wire 5 '" rs1_i [4:0] $end
$var wire 5 (" rs2_i [4:0] $end
$var wire 32 )" alu_result_2 [31:0] $end
$var wire 32 *" alu_result_1 [31:0] $end
$var parameter 32 +" N_param $end
$var reg 33 ," result [32:0] $end
$var reg 33 -" result_secondary [32:0] $end
$upscope $end
$scope module ins_mem $end
$var wire 1 # clk $end
$var wire 32 ." instruction [31:0] $end
$var wire 32 /" pc [31:0] $end
$var wire 32 0" pc_o [31:0] $end
$var wire 1 $ reset $end
$var wire 32 1" pc_i [31:0] $end
$var wire 32 2" instruction_o [31:0] $end
$var wire 32 3" address_index [31:0] $end
$var parameter 32 4" MEM_SIZE $end
$var reg 32 5" pc_reg [31:0] $end
$upscope $end
$scope module pc $end
$var wire 1 # clk_i $end
$var wire 1 Q halt_i $end
$var wire 1 R isTakenBranch_i $end
$var wire 32 6" pc_o [31:0] $end
$var wire 1 $ reset_i $end
$var wire 32 7" targetPC_i [31:0] $end
$var wire 32 8" nextPC [31:0] $end
$var reg 32 9" PC [31:0] $end
$upscope $end
$scope module reg_file $end
$var wire 1 # clk $end
$var wire 1 :" cntrl1 $end
$var wire 1 ;" cntrl2 $end
$var wire 5 <" destReg_pi [4:0] $end
$var wire 5 =" reg1_pi [4:0] $end
$var wire 5 >" reg2_pi [4:0] $end
$var wire 1 $ reset $end
$var wire 1 ( we_pi $end
$var wire 32 ?" writeData_pi [31:0] $end
$var wire 32 @" operand2_po [31:0] $end
$var wire 32 A" operand1_po [31:0] $end
$var integer 32 B" i [31:0] $end
$upscope $end
$upscope $end
$scope module glbl $end
$var wire 1 C" GRESTORE $end
$var wire 1 D" GSR $end
$var wire 1 E" GTS $end
$var wire 1 F" PLL_LOCKG $end
$var wire 1 G" PRLD $end
$var wire 1 H" p_up_tmp $end
$var parameter 32 I" GRES_START $end
$var parameter 32 J" GRES_WIDTH $end
$var parameter 32 K" ROC_WIDTH $end
$var parameter 32 L" TOC_WIDTH $end
$var reg 1 M" GRESTORE_int $end
$var reg 1 N" GSR_int $end
$var reg 1 O" GTS_int $end
$var reg 1 P" JTAG_SEL1_GLBL $end
$var reg 1 Q" JTAG_SEL2_GLBL $end
$var reg 1 R" JTAG_SEL3_GLBL $end
$var reg 1 S" JTAG_SEL4_GLBL $end
$var reg 1 T" JTAG_USER_TDO1_GLBL $end
$var reg 1 U" JTAG_USER_TDO2_GLBL $end
$var reg 1 V" JTAG_USER_TDO3_GLBL $end
$var reg 1 W" JTAG_USER_TDO4_GLBL $end
$var reg 1 X" PRLD_int $end
$upscope $end
$scope begin init $end
$var integer 32 Y" vcdlevel [31:0] $end
$upscope $end
$scope begin stim $end
$upscope $end
$upscope $end
$enddefinitions $end
$comment Show the parameter values. $end
$dumpall
b0 L"
b11000011010100000 K"
b10011100010000 J"
b10011100010000 I"
b100110001001011010000000 4"
b100000 +"
b100000 p
b1000000000000 _
b100000 P
b100000 "
b1010 !
$end
#0
$dumpvars
b0 Y"
1X"
zW"
zV"
zU"
zT"
0S"
0R"
0Q"
0P"
0O"
1N"
0M"
1H"
1G"
1F"
0E"
1D"
0C"
bx B"
bx A"
bx @"
bz ?"
b0 >"
b0 ="
b0 <"
0;"
0:"
bx 9"
bx 8"
b0 7"
bx 6"
b0 5"
b0xxxxxxxxxxxxxxxxxxxxxxxxxxxxxx 3"
b10011 2"
bx 1"
b0 0"
bx /"
bx ."
bx -"
b0 ,"
b0 *"
bx )"
bx ("
bx '"
bx &"
bx %"
bx $"
bx #"
bx ""
bx !"
bx ~
bx }
bx |
z{
bx z
b0 y
b0 x
b0 w
b0 v
b0 u
b0 t
b0 s
b0 r
b0 q
bx o
bx n
b0 m
b0 l
b0 k
b0 j
bx i
b0 h
b0 g
b0 f
b0 e
b0 d
bx c
b0 b
b0 a
bx `
bx ^
b0xxxxxxxxxx ]
bx \
bx [
bx Z
bx Y
bx X
b0 W
bx V
bx U
bx T
bx S
0R
0Q
b0 O
b0 N
bx M
bx L
b0 K
bx J
bx I
bx H
b0 G
b0 F
b0 E
bx D
bx C
b10011 B
bx A
bx @
x?
bx >
bx =
bx <
bx ;
bx :
bx 9
bx 8
bx 7
bx 6
bx 5
bx 4
x3
b0 2
bx 1
bx 0
b0 /
bx .
bx -
b0 ,
bx +
bx *
bz )
0(
b0 '
z&
0%
1$
0#
$end
#5000
b0 I
b0 )"
b0 -"
b0 [
b0 ]
b0 ^
03
0?
b0 *
b0 J
b0 Y
b0 +
b0 ("
b0 o
b0 =
b0 n
b100100100 8"
b1000100010111 ."
b1001000 3"
b0 <
b0 A"
b0 9
b0 @"
b0 0
b0 -
b0 :
b0 7
b0 \
b0 C
b0 L
b0 X
b0 H
b0 4
b0 %"
b0 @
b0 ~
b0 1
b0 &"
b0 .
b0 '"
b0 ""
b0 ;
b0 !"
b0 $"
b0 8
b0 #"
b0 }
b0 D
b0 |
b0 M
b0 z
b0 5
b0 A
b0 i
b100100000 /"
b100100000 6
b100100000 1"
b100100000 6"
b100100000 9"
b0 V
b0 U
b0 T
b0 S
b100000 B"
b1000000000000 c
1#
#10000
0#
1C"
1M"
#15000
b1000000000000 c
b100000 B"
1#
#20000
0#
0C"
0M"
#25000
b100000 B"
b1000000000000 c
1#
#30000
0#
#35000
b1000000000000 c
b100000 B"
1#
#40000
0#
#45000
b10000000000 N
b10000000000 e
b10000000000 r
b10 O
b10 d
b10 q
b10011 o
b10011 =
b10011 n
b100101000 8"
b11101110000000010000000100010011 ."
b1001001 3"
b10011 A
b10011 i
b100100000 5
b100100100 /"
b100100100 6
b100100100 1"
b100100100 6"
b100100100 9"
b1001100000000000000000000000100100000 S
b11101110000000010000000100010011 B
b11101110000000010000000100010011 2"
0$
1#
#50000
0#
#55000
b11111111111111111111111011100000 E
b11111111111111111111111011100000 h
b11111111111111111111111011100000 u
b1110111 F
b1110111 g
b1110111 t
b10 /
b10 l
b10 x
b10 ="
b10 2
b10 k
b10 w
b10 <"
b11110001010111111111000011101111 B
b11110001010111111111000011101111 2"
b10000000000 M
b10000000000 z
b10011 @
b10011 ~
b100100000 4
b100100000 %"
b11101110000000010000000100010011 A
b11101110000000010000000100010011 i
b100100100 5
b100101100 8"
b11110001010111111111000011101111 ."
b1001010 3"
b100000000000000000000000000000000000000000000000000000000000000000000000000000000000000000000000000000000000000000000000000000000000000000000000000000000000000000000000000000000000000000000000000000000000000000000000000000000000001001100000000000000000000000100100000 T
b1110111000000001000000010001001100000000000000000000000100100100 S
b100101000 /"
b100101000 6
b100101000 1"
b100101000 6"
b100101000 9"
1#
#60000
0#
#65000
b1000000000000000000000000000000000 N
b1000000000000000000000000000000000 e
b1000000000000000000000000000000000 r
b11111111111111111111111011100000 K
b11111111111111111111111011100000 *"
b11111111111111111111111011100000 ,"
b11111111111111111111111100010100 E
b11111111111111111111111100010100 h
b11111111111111111111111100010100 u
b0 F
b0 g
b0 t
b0 /
b0 l
b0 x
b0 ="
b1 2
b1 k
b1 w
b1 <"
b100000 O
b100000 d
b100000 q
b11111111010111111111000001101111 B
b11111111010111111111000001101111 2"
1?
b1101111 o
b1101111 =
b1101111 n
b100110000 8"
b11111111010111111111000001101111 ."
b1001011 3"
b10000000000 L
b10000000000 X
b11111111111111111111111011100000 }
b11111111111111111111111011100000 D
b11111111111111111111111011100000 |
b10 1
b10 &"
b11101110000000010000000100010011 @
b11101110000000010000000100010011 ~
b100100100 4
b100100100 %"
b11110001010111111111000011101111 A
b11110001010111111111000011101111 i
b100101000 5
b100101100 /"
b100101100 6
b100101100 1"
b100101100 6"
b100101100 9"
b100000000000000000000000000000000000000000000000000000000000000000000000000000000000000000000000000000000000000000000000000000000000000000000000000000000000000000000000000000000000000000000000000000000000000000000000000000000000000001100000000000000000000000100100000 U
b100000000000000000000000000000000000000000011111111111111111111111011100000000000000000000000000000000000000000000000000000000000000000000000000000000000000001000000000000000000000000000000000000000000001110111000000001000000010001001100000000000000000000000100100100 T
b1111000101011111111100001110111100000000000000000000000100101000 S
1#
#70000
0#
#75000
b111100 I
b111100 )"
b100101100 K
b100101100 *"
b100000000000000000000000000111100 -"
b100101100 ,"
b11111111111111111111111111110100 E
b11111111111111111111111111110100 h
b11111111111111111111111111110100 u
b0 2
b0 k
b0 w
b0 <"
b1110111000 [
b1110111000 ]
b11111111111111111111111011100000 J
b11111111111111111111111011100000 Y
bx B
bx 2"
b11111111111111111111111011100000 C
b10 0
b1000000000000000000000000000000000 M
b1000000000000000000000000000000000 z
b11111111111111111111111100010100 }
b11111111111111111111111100010100 D
b11111111111111111111111100010100 |
b1 1
b1 &"
b11110001010111111111000011101111 @
b11110001010111111111000011101111 ~
b100101000 4
b100101000 %"
b11111111010111111111000001101111 A
b11111111010111111111000001101111 i
b100101100 5
b100110100 8"
bx ."
b1001100 3"
b100000000000000000000000000000000000000000011111111111111111111111011100000000000000000000000000000000000000000000000000000000000000000000000000000000000000001000000000000000000000000000000000000000000111111111111111111111110111000001100000000000000000000000100100100 U
b10000000000000000000000000000000000000000000000000000000000000000011111111111111111111111100010100000000000000000000000000000000000000000000000000000000000000000000000000000000000000100000000000000000000000000000000000000000001111000101011111111100001110111100000000000000000000000100101000 T
b1111111101011111111100000110111100000000000000000000000100101100 S
b100110000 /"
b100110000 6
b100110000 1"
b100110000 6"
b100110000 9"
1#
#80000
0#
#85000
b0 N
b0 e
b0 r
b100100000 I
b100100000 )"
b100110000 K
b100110000 *"
b100000000000000000000000100100000 -"
b100110000 ,"
b0 E
b0 h
b0 u
b0 O
b0 d
b0 q
b1001011 [
b1001011 ]
b100101100 J
b100101100 Y
bx o
bx =
bx n
b100111000 8"
b1001101 3"
b111100 H
b1000000000000000000000000000000000 L
b1000000000000000000000000000000000 X
b11111111111111111111111100010100 C
b1 0
b11111111111111111111111111110100 }
b11111111111111111111111111110100 D
b11111111111111111111111111110100 |
b0 1
b0 &"
b11111111010111111111000001101111 @
b11111111010111111111000001101111 ~
b100101100 4
b100101100 %"
bx A
bx i
b100110000 5
b100110100 /"
b100110100 6
b100110100 1"
b100110100 6"
b100110100 9"
b10000000000000000000000000000000000000000000000000000000000011110011111111111111111111111100010100000000000000000000000000000000000000000000000000000000000000000000000000000000000000100000000000000000000000000000000000000000000000000000000000000001001011001100000000000000000000000100101000 U
b10000000000000000000000000000000000000000000000000000000000000000011111111111111111111111111110100000000000000000000000000000000000000000000000000000000000000000000000000000000000000000000000000000000000000000000000000000000001111111101011111111100000110111100000000000000000000000100101100 T
b0xxxxxxxxxxxxxxxxxxxxxxxxxxxxxxxx00000000000000000000000100110000 S
1#
#90000
0#
#95000
b0 I
b0 )"
b0 K
b0 *"
b0 -"
b0 ,"
b1001100 [
b1001100 ]
b100110000 J
b100110000 Y
b100100000 H
b11111111111111111111111111110100 C
b0 0
b0 M
b0 z
b0 }
b0 D
b0 |
bx @
bx ~
b100110000 4
b100110000 %"
b100110100 5
b100111100 8"
b1001110 3"
b10000000000000000000000000000000000000000000000000000000010010000011111111111111111111111111110100000000000000000000000000000000000000000000000000000000000000000000000000000000000000000000000000000000000000000000000000000000000000000000000000000001001100001100000000000000000000000100101100 U
b0xxxxxxxxxxxxxxxxxxxxxxxxxxxxxxxx00000000000000000000000100110000 T
b0xxxxxxxxxxxxxxxxxxxxxxxxxxxxxxxx00000000000000000000000100110100 S
b100111000 /"
b100111000 6
b100111000 1"
b100111000 6"
b100111000 9"
1#
#100000
0#
0G"
0X"
0D"
0N"
#105000
b0 [
b0 ]
x?
b0 J
b0 Y
b101000000 8"
b1001111 3"
b0 H
b0 L
b0 X
b0 C
b100110100 4
b100110100 %"
b100111000 5
b100111100 /"
b100111100 6
b100111100 1"
b100111100 6"
b100111100 9"
b0xx00000000000000000000000100110000 U
b0xxxxxxxxxxxxxxxxxxxxxxxxxxxxxxxx00000000000000000000000100110100 T
b0xxxxxxxxxxxxxxxxxxxxxxxxxxxxxxxx00000000000000000000000100111000 S
1#
#110000
0#
#115000
b100111000 4
b100111000 %"
b100111100 5
b101000100 8"
b1010000 3"
b0xx00000000000000000000000100110100 U
b0xxxxxxxxxxxxxxxxxxxxxxxxxxxxxxxx00000000000000000000000100111000 T
b0xxxxxxxxxxxxxxxxxxxxxxxxxxxxxxxx00000000000000000000000100111100 S
b101000000 /"
b101000000 6
b101000000 1"
b101000000 6"
b101000000 9"
1#
#120000
0#
#125000
b101001000 8"
b1010001 3"
b100111100 4
b100111100 %"
b101000000 5
b101000100 /"
b101000100 6
b101000100 1"
b101000100 6"
b101000100 9"
b0xx00000000000000000000000100111000 U
b0xxxxxxxxxxxxxxxxxxxxxxxxxxxxxxxx00000000000000000000000100111100 T
b0xxxxxxxxxxxxxxxxxxxxxxxxxxxxxxxx00000000000000000000000101000000 S
1#
#130000
0#
#135000
b101000000 4
b101000000 %"
b101000100 5
b101001100 8"
b1010010 3"
b0xx00000000000000000000000100111100 U
b0xxxxxxxxxxxxxxxxxxxxxxxxxxxxxxxx00000000000000000000000101000000 T
b0xxxxxxxxxxxxxxxxxxxxxxxxxxxxxxxx00000000000000000000000101000100 S
b101001000 /"
b101001000 6
b101001000 1"
b101001000 6"
b101001000 9"
1#
#140000
0#
#145000
b101010000 8"
b1010011 3"
b101000100 4
b101000100 %"
b101001000 5
b101001100 /"
b101001100 6
b101001100 1"
b101001100 6"
b101001100 9"
b0xx00000000000000000000000101000000 U
b0xxxxxxxxxxxxxxxxxxxxxxxxxxxxxxxx00000000000000000000000101000100 T
b0xxxxxxxxxxxxxxxxxxxxxxxxxxxxxxxx00000000000000000000000101001000 S
1#
#150000
0#
#155000
b101001000 4
b101001000 %"
b101001100 5
b101010100 8"
b1010100 3"
b0xx00000000000000000000000101000100 U
b0xxxxxxxxxxxxxxxxxxxxxxxxxxxxxxxx00000000000000000000000101001000 T
b0xxxxxxxxxxxxxxxxxxxxxxxxxxxxxxxx00000000000000000000000101001100 S
b101010000 /"
b101010000 6
b101010000 1"
b101010000 6"
b101010000 9"
1#
#160000
0#
#165000
b101011000 8"
b1010101 3"
b101001100 4
b101001100 %"
b101010000 5
b101010100 /"
b101010100 6
b101010100 1"
b101010100 6"
b101010100 9"
b0xx00000000000000000000000101001000 U
b0xxxxxxxxxxxxxxxxxxxxxxxxxxxxxxxx00000000000000000000000101001100 T
b0xxxxxxxxxxxxxxxxxxxxxxxxxxxxxxxx00000000000000000000000101010000 S
1#
#170000
0#
#175000
b101010000 4
b101010000 %"
b101010100 5
b101011100 8"
b1010110 3"
b0xx00000000000000000000000101001100 U
b0xxxxxxxxxxxxxxxxxxxxxxxxxxxxxxxx00000000000000000000000101010000 T
b0xxxxxxxxxxxxxxxxxxxxxxxxxxxxxxxx00000000000000000000000101010100 S
b101011000 /"
b101011000 6
b101011000 1"
b101011000 6"
b101011000 9"
1#
#180000
0#
#185000
b101100000 8"
b1010111 3"
b101010100 4
b101010100 %"
b101011000 5
b101011100 /"
b101011100 6
b101011100 1"
b101011100 6"
b101011100 9"
b0xx00000000000000000000000101010000 U
b0xxxxxxxxxxxxxxxxxxxxxxxxxxxxxxxx00000000000000000000000101010100 T
b0xxxxxxxxxxxxxxxxxxxxxxxxxxxxxxxx00000000000000000000000101011000 S
1#
#190000
0#
#195000
b101011000 4
b101011000 %"
b101011100 5
b101100100 8"
b1011000 3"
b0xx00000000000000000000000101010100 U
b0xxxxxxxxxxxxxxxxxxxxxxxxxxxxxxxx00000000000000000000000101011000 T
b0xxxxxxxxxxxxxxxxxxxxxxxxxxxxxxxx00000000000000000000000101011100 S
b101100000 /"
b101100000 6
b101100000 1"
b101100000 6"
b101100000 9"
1#
#200000
0#
#205000
b101101000 8"
b1011001 3"
b101011100 4
b101011100 %"
b101100000 5
b101100100 /"
b101100100 6
b101100100 1"
b101100100 6"
b101100100 9"
b0xx00000000000000000000000101011000 U
b0xxxxxxxxxxxxxxxxxxxxxxxxxxxxxxxx00000000000000000000000101011100 T
b0xxxxxxxxxxxxxxxxxxxxxxxxxxxxxxxx00000000000000000000000101100000 S
1#
#210000
0#
#215000
b101100000 4
b101100000 %"
b101100100 5
b101101100 8"
b1011010 3"
b0xx00000000000000000000000101011100 U
b0xxxxxxxxxxxxxxxxxxxxxxxxxxxxxxxx00000000000000000000000101100000 T
b0xxxxxxxxxxxxxxxxxxxxxxxxxxxxxxxx00000000000000000000000101100100 S
b101101000 /"
b101101000 6
b101101000 1"
b101101000 6"
b101101000 9"
1#
#220000
0#
#225000
b101110000 8"
b1011011 3"
b101100100 4
b101100100 %"
b101101000 5
b101101100 /"
b101101100 6
b101101100 1"
b101101100 6"
b101101100 9"
b0xx00000000000000000000000101100000 U
b0xxxxxxxxxxxxxxxxxxxxxxxxxxxxxxxx00000000000000000000000101100100 T
b0xxxxxxxxxxxxxxxxxxxxxxxxxxxxxxxx00000000000000000000000101101000 S
1#
#230000
0#
#235000
b101101000 4
b101101000 %"
b101101100 5
b101110100 8"
b1011100 3"
b0xx00000000000000000000000101100100 U
b0xxxxxxxxxxxxxxxxxxxxxxxxxxxxxxxx00000000000000000000000101101000 T
b0xxxxxxxxxxxxxxxxxxxxxxxxxxxxxxxx00000000000000000000000101101100 S
b101110000 /"
b101110000 6
b101110000 1"
b101110000 6"
b101110000 9"
1#
#240000
0#
#245000
b101111000 8"
b1011101 3"
b101101100 4
b101101100 %"
b101110000 5
b101110100 /"
b101110100 6
b101110100 1"
b101110100 6"
b101110100 9"
b0xx00000000000000000000000101101000 U
b0xxxxxxxxxxxxxxxxxxxxxxxxxxxxxxxx00000000000000000000000101101100 T
b0xxxxxxxxxxxxxxxxxxxxxxxxxxxxxxxx00000000000000000000000101110000 S
1#
#250000
0#
#255000
b101110000 4
b101110000 %"
b101110100 5
b101111100 8"
b1011110 3"
b0xx00000000000000000000000101101100 U
b0xxxxxxxxxxxxxxxxxxxxxxxxxxxxxxxx00000000000000000000000101110000 T
b0xxxxxxxxxxxxxxxxxxxxxxxxxxxxxxxx00000000000000000000000101110100 S
b101111000 /"
b101111000 6
b101111000 1"
b101111000 6"
b101111000 9"
1#
#260000
0#
#265000
b110000000 8"
b1011111 3"
b101110100 4
b101110100 %"
b101111000 5
b101111100 /"
b101111100 6
b101111100 1"
b101111100 6"
b101111100 9"
b0xx00000000000000000000000101110000 U
b0xxxxxxxxxxxxxxxxxxxxxxxxxxxxxxxx00000000000000000000000101110100 T
b0xxxxxxxxxxxxxxxxxxxxxxxxxxxxxxxx00000000000000000000000101111000 S
1#
#270000
0#
#275000
b101111000 4
b101111000 %"
b101111100 5
b110000100 8"
b1100000 3"
b0xx00000000000000000000000101110100 U
b0xxxxxxxxxxxxxxxxxxxxxxxxxxxxxxxx00000000000000000000000101111000 T
b0xxxxxxxxxxxxxxxxxxxxxxxxxxxxxxxx00000000000000000000000101111100 S
b110000000 /"
b110000000 6
b110000000 1"
b110000000 6"
b110000000 9"
1#
#280000
0#
#285000
b110001000 8"
b1100001 3"
b101111100 4
b101111100 %"
b110000000 5
b110000100 /"
b110000100 6
b110000100 1"
b110000100 6"
b110000100 9"
b0xx00000000000000000000000101111000 U
b0xxxxxxxxxxxxxxxxxxxxxxxxxxxxxxxx00000000000000000000000101111100 T
b0xxxxxxxxxxxxxxxxxxxxxxxxxxxxxxxx00000000000000000000000110000000 S
1#
#290000
0#
#295000
b110000000 4
b110000000 %"
b110000100 5
b110001100 8"
b1100010 3"
b0xx00000000000000000000000101111100 U
b0xxxxxxxxxxxxxxxxxxxxxxxxxxxxxxxx00000000000000000000000110000000 T
b0xxxxxxxxxxxxxxxxxxxxxxxxxxxxxxxx00000000000000000000000110000100 S
b110001000 /"
b110001000 6
b110001000 1"
b110001000 6"
b110001000 9"
1#
#300000
0#
#305000
b110010000 8"
b1100011 3"
b110000100 4
b110000100 %"
b110001000 5
b110001100 /"
b110001100 6
b110001100 1"
b110001100 6"
b110001100 9"
b0xx00000000000000000000000110000000 U
b0xxxxxxxxxxxxxxxxxxxxxxxxxxxxxxxx00000000000000000000000110000100 T
b0xxxxxxxxxxxxxxxxxxxxxxxxxxxxxxxx00000000000000000000000110001000 S
1#
#310000
0#
#315000
b110001000 4
b110001000 %"
b110001100 5
b110010100 8"
b1100100 3"
b0xx00000000000000000000000110000100 U
b0xxxxxxxxxxxxxxxxxxxxxxxxxxxxxxxx00000000000000000000000110001000 T
b0xxxxxxxxxxxxxxxxxxxxxxxxxxxxxxxx00000000000000000000000110001100 S
b110010000 /"
b110010000 6
b110010000 1"
b110010000 6"
b110010000 9"
1#
#320000
0#
#325000
b110011000 8"
b1100101 3"
b110001100 4
b110001100 %"
b110010000 5
b110010100 /"
b110010100 6
b110010100 1"
b110010100 6"
b110010100 9"
b0xx00000000000000000000000110001000 U
b0xxxxxxxxxxxxxxxxxxxxxxxxxxxxxxxx00000000000000000000000110001100 T
b0xxxxxxxxxxxxxxxxxxxxxxxxxxxxxxxx00000000000000000000000110010000 S
1#
#330000
0#
#335000
b110010000 4
b110010000 %"
b110010100 5
b110011100 8"
b1100110 3"
b0xx00000000000000000000000110001100 U
b0xxxxxxxxxxxxxxxxxxxxxxxxxxxxxxxx00000000000000000000000110010000 T
b0xxxxxxxxxxxxxxxxxxxxxxxxxxxxxxxx00000000000000000000000110010100 S
b110011000 /"
b110011000 6
b110011000 1"
b110011000 6"
b110011000 9"
1#
#340000
0#
#345000
b110100000 8"
b1100111 3"
b110010100 4
b110010100 %"
b110011000 5
b110011100 /"
b110011100 6
b110011100 1"
b110011100 6"
b110011100 9"
b0xx00000000000000000000000110010000 U
b0xxxxxxxxxxxxxxxxxxxxxxxxxxxxxxxx00000000000000000000000110010100 T
b0xxxxxxxxxxxxxxxxxxxxxxxxxxxxxxxx00000000000000000000000110011000 S
1#
#350000
0#
#355000
b110011000 4
b110011000 %"
b110011100 5
b110100100 8"
b1101000 3"
b0xx00000000000000000000000110010100 U
b0xxxxxxxxxxxxxxxxxxxxxxxxxxxxxxxx00000000000000000000000110011000 T
b0xxxxxxxxxxxxxxxxxxxxxxxxxxxxxxxx00000000000000000000000110011100 S
b110100000 /"
b110100000 6
b110100000 1"
b110100000 6"
b110100000 9"
1#
#360000
0#
#365000
b110101000 8"
b1101001 3"
b110011100 4
b110011100 %"
b110100000 5
b110100100 /"
b110100100 6
b110100100 1"
b110100100 6"
b110100100 9"
b0xx00000000000000000000000110011000 U
b0xxxxxxxxxxxxxxxxxxxxxxxxxxxxxxxx00000000000000000000000110011100 T
b0xxxxxxxxxxxxxxxxxxxxxxxxxxxxxxxx00000000000000000000000110100000 S
1#
#370000
0#
#375000
b110100000 4
b110100000 %"
b110100100 5
b110101100 8"
b1101010 3"
b0xx00000000000000000000000110011100 U
b0xxxxxxxxxxxxxxxxxxxxxxxxxxxxxxxx00000000000000000000000110100000 T
b0xxxxxxxxxxxxxxxxxxxxxxxxxxxxxxxx00000000000000000000000110100100 S
b110101000 /"
b110101000 6
b110101000 1"
b110101000 6"
b110101000 9"
1#
#380000
0#
#385000
b110110000 8"
b1101011 3"
b110100100 4
b110100100 %"
b110101000 5
b110101100 /"
b110101100 6
b110101100 1"
b110101100 6"
b110101100 9"
b0xx00000000000000000000000110100000 U
b0xxxxxxxxxxxxxxxxxxxxxxxxxxxxxxxx00000000000000000000000110100100 T
b0xxxxxxxxxxxxxxxxxxxxxxxxxxxxxxxx00000000000000000000000110101000 S
1#
#390000
0#
#395000
b110101000 4
b110101000 %"
b110101100 5
b110110100 8"
b1101100 3"
b0xx00000000000000000000000110100100 U
b0xxxxxxxxxxxxxxxxxxxxxxxxxxxxxxxx00000000000000000000000110101000 T
b0xxxxxxxxxxxxxxxxxxxxxxxxxxxxxxxx00000000000000000000000110101100 S
b110110000 /"
b110110000 6
b110110000 1"
b110110000 6"
b110110000 9"
1#
#400000
0#
#405000
b110111000 8"
b1101101 3"
b110101100 4
b110101100 %"
b110110000 5
b110110100 /"
b110110100 6
b110110100 1"
b110110100 6"
b110110100 9"
b0xx00000000000000000000000110101000 U
b0xxxxxxxxxxxxxxxxxxxxxxxxxxxxxxxx00000000000000000000000110101100 T
b0xxxxxxxxxxxxxxxxxxxxxxxxxxxxxxxx00000000000000000000000110110000 S
1#
#410000
0#
#415000
b110110000 4
b110110000 %"
b110110100 5
b110111100 8"
b1101110 3"
b0xx00000000000000000000000110101100 U
b0xxxxxxxxxxxxxxxxxxxxxxxxxxxxxxxx00000000000000000000000110110000 T
b0xxxxxxxxxxxxxxxxxxxxxxxxxxxxxxxx00000000000000000000000110110100 S
b110111000 /"
b110111000 6
b110111000 1"
b110111000 6"
b110111000 9"
1#
#420000
0#
#425000
b111000000 8"
b1101111 3"
b110110100 4
b110110100 %"
b110111000 5
b110111100 /"
b110111100 6
b110111100 1"
b110111100 6"
b110111100 9"
b0xx00000000000000000000000110110000 U
b0xxxxxxxxxxxxxxxxxxxxxxxxxxxxxxxx00000000000000000000000110110100 T
b0xxxxxxxxxxxxxxxxxxxxxxxxxxxxxxxx00000000000000000000000110111000 S
1#
#430000
0#
