rtl/riscv32i_module/fpu_adder_tb.vcd
$date
	Sat Oct  4 18:03:23 2025
$end
$version
	Icarus Verilog
$end
$timescale
	1ps
$end
$scope module FPU_ADDER_clk_stimTB $end
$var wire 32 ! Out [31:0] $end
$var parameter 32 " Exponent_size $end
$var parameter 32 # Fp_size $end
$var parameter 32 $ Mantissa_size $end
$var reg 32 % A [31:0] $end
$var reg 32 & B [31:0] $end
$var reg 1 ' clk $end
$var reg 3 ( rm [2:0] $end
$scope module dut $end
$var wire 32 ) A [31:0] $end
$var wire 32 * B [31:0] $end
$var wire 32 + Out [31:0] $end
$var wire 1 , a_is_inf $end
$var wire 1 - a_is_nan $end
$var wire 1 . b_is_inf $end
$var wire 1 / b_is_nan $end
$var wire 1 0 result_zero $end
$var wire 3 1 rm [2:0] $end
$var wire 23 2 saved_mantissa [22:0] $end
$var wire 23 3 leading_zero [22:0] $end
$var wire 1 4 is_subnormal_B $end
$var wire 1 5 is_subnormal_A $end
$var wire 1 6 final_sign $end
$var wire 32 7 final_result [31:0] $end
$var wire 24 8 final_mantisa [23:0] $end
$var wire 8 9 final_exponent [7:0] $end
$var wire 1 : carry_out $end
$var wire 1 ; a_GTEQ_b $end
$var wire 1 < S_B $end
$var wire 1 = S_A $end
$var wire 25 > M_sum [24:0] $end
$var wire 25 ? M_sub [24:0] $end
$var wire 24 @ M_shifted_small [23:0] $end
$var wire 25 A M_result_non_normal [24:0] $end
$var wire 24 B M_num_1_big [23:0] $end
$var wire 24 C M_num_0_small [23:0] $end
$var wire 1 D M_all_zeros $end
$var wire 24 E M_B_total [23:0] $end
$var wire 23 F M_B [22:0] $end
$var wire 24 G M_A_total [23:0] $end
$var wire 23 H M_A [22:0] $end
$var wire 8 I E_num_1_big [7:0] $end
$var wire 8 J E_num_0_small [7:0] $end
$var wire 24 K E_diff_big_small_mod [23:0] $end
$var wire 24 L E_diff_big_small [23:0] $end
$var wire 8 M E_B_eff [7:0] $end
$var wire 8 N E_B [7:0] $end
$var wire 8 O E_A_eff [7:0] $end
$var wire 8 P E_A [7:0] $end
$var parameter 32 Q Exponent_size $end
$var parameter 32 R Fp_size $end
$var parameter 32 S Mantissa_size $end
$var parameter 32 T QNAN $end
$scope module leading_zeroth_bit_add $end
$var wire 1 D all_zeros $end
$var wire 24 U in_wire [23:0] $end
$var wire 24 V leading_one_oh [23:0] $end
$var wire 23 W leading_zero [22:0] $end
$var parameter 33 X Bit_Length $end
$var parameter 32 Y Bit_Length_O $end
$var reg 24 Z leading_one_oh_r [23:0] $end
$var reg 23 [ leading_zero_r [22:0] $end
$var reg 1 \ valid_r $end
$var integer 32 ] i [31:0] $end
$upscope $end
$upscope $end
$upscope $end
$enddefinitions $end
$comment Show the parameter values. $end
$dumpall
b10111 Y
b11000 X
b1111111110000000000000000000000 T
b10111 S
b100000 R
b1000 Q
b10111 $
b100000 #
b1000 "
$end
#0
$dumpvars
b11111111111111111111111111111111 ]
0\
b0 [
b0 Z
b0 W
b0 V
b0 U
b0 P
b1 O
b0 N
b1 M
b0 L
b0 K
b1 J
b1 I
b0 H
b0 G
b0 F
b0 E
1D
b0 C
b0 B
b0 A
b0 @
b0 ?
b0 >
0=
0<
1;
0:
b1 9
b0 8
b0 7
06
15
14
b0 3
b0 2
b0 1
10
0/
0.
0-
0,
b0 +
b0 *
b0 )
b0 (
0'
b0 &
b0 %
b0 !
$end
#5000
b1000000001010000000000000000000 !
b1000000001010000000000000000000 +
b1000000001010000000000000000000 7
00
b1 3
b1 W
b1 [
0D
b1010000000000000000000 2
1:
b10000000000000000000000 V
b10000000000000000000000 Z
1\
b11111111111111111111111111111111 ]
b101010000000000000000000 8
b10000000 9
b10100000000000000000000 U
b1010100000000000000000000 A
b101000000000000000000000 @
b101000000000000000000000 C
b1111111 I
b0 K
b0 L
b1111111 J
b1111111 M
b1010100000000000000000000 >
b100000000000000000000 ?
b101100000000000000000000 B
b1111111 O
b101100000000000000000000 E
0;
b1100000000000000000000 F
04
b1111111 N
b101000000000000000000000 G
b1000000000000000000000 H
05
b1111111 P
b111111101100000000000000000000 &
b111111101100000000000000000000 *
b111111101000000000000000000000 %
b111111101000000000000000000000 )
1'
#10000
0'
#15000
b1111000010100000000000 2
b1000100001111000010100000000000 !
b1000100001111000010100000000000 +
b1000100001111000010100000000000 7
b11111111111111111111111111111111 ]
b0 3
b0 W
b0 [
b100000000000000000000000 V
b100000000000000000000000 Z
1\
b1111000010100000000000 8
b10001000 9
0:
b101111000010100000000000 U
b101111000010100000000000 A
b101000000000000 @
b1001 L
b10001000 I
b101111000010100000000000 >
b101110111000100000000000 ?
b101110111101100000000000 B
b10001000 M
b101110111101100000000000 E
b1110111101100000000000 F
b10001000 N
b1000100001110111101100000000000 &
b1000100001110111101100000000000 *
1'
#20000
0'
#25000
b1000000000000000000000 2
b1 3
b1 W
b1 [
b11111111111111111111111111111111 ]
b10000000000000000000000 V
b10000000000000000000000 Z
1\
b101000000000000000000000 8
b1000000001000000000000000000000 !
b1000000001000000000000000000000 +
b1000000001000000000000000000000 7
1:
b10000000000000000000000 U
b10000000 9
b1010000000000000000000000 A
b101000000000000000000000 B
b1010000000000000000000000 >
b0 ?
b101000000000000000000000 @
b0 L
b1111111 I
b1111111 M
b101000000000000000000000 E
1;
b1000000000000000000000 F
b1111111 N
b111111101000000000000000000000 &
b111111101000000000000000000000 *
1'
#30000
0'
#35000
b1000000001100000000000000000000 !
b1000000001100000000000000000000 +
b1000000001100000000000000000000 7
b1100000000000000000000 2
b11111111111111111111111111111111 ]
b1 3
b1 W
b1 [
b10000000000000000000000 V
b10000000000000000000000 Z
1\
b101100000000000000000000 8
b11000000000000000000000 U
b1011000000000000000000000 A
b1011000000000000000000000 >
b1000000000000000000000 ?
b110000000000000000000000 B
b110000000000000000000000 G
b10000000000000000000000 H
b10111111110000000000000000000000 %
b10111111110000000000000000000000 )
1'
#40000
0'
#45000
10
b0 !
b0 +
b0 7
1D
b0 2
0:
b1 9
b11111111111111111111111111111111 ]
b0 3
b0 W
b0 [
b0 V
b0 Z
0\
b0 8
b0 U
b1 J
b0 K
b0 L
b1 I
b0 A
b1 M
b1 O
b0 B
b0 >
b0 ?
b0 @
b0 C
b0 E
b0 F
14
b0 N
b0 G
b0 H
15
1;
b0 P
b10000000000000000000000000000000 &
b10000000000000000000000000000000 *
b0 %
b0 )
1'
#50000
0'
#55000
b111111100000000000000000000000 !
b111111100000000000000000000000 +
b111111100000000000000000000000 7
00
0D
b100000000000000000000000 V
b100000000000000000000000 Z
1\
b11111111111111111111111111111111 ]
b1111111 9
b100000000000000000000000 U
b100000000000000000000000 A
b1011110 J
b100000000000000000000000 C
b1 K
b100001 L
b1111111 I
b100000000000000000000000 >
b100000000000000000000000 ?
b100000000000000000000000 B
b1011110 M
b100000000000000000000000 E
b1111111 O
b100000000000000000000000 G
04
b1011110 N
05
b1111111 P
b101111000000000000000000000000 &
b101111000000000000000000000000 *
b111111100000000000000000000000 %
b111111100000000000000000000000 )
1'
#60000
0'
#65000
b10 3
b10 W
b10 [
b110110011111001100100 2
b1011111100110110011111001100100 !
b1011111100110110011111001100100 +
b1011111100110110011111001100100 7
1:
b11111111111111111111111111111111 ]
b1000000000000000000000 V
b1000000000000000000000 Z
1\
b100110110011111001100100 8
b10111111 9
b1101100111110011001000 U
b0 K
b100110110011111001100100 @
b10111110 J
b1001101100111110011001000 A
b0 L
b10111110 I
b100110110011111001100100 C
b10111110 M
b1001101100111110011001000 >
b0 ?
b100110110011111001100100 B
b10111110 O
b100110110011111001100100 E
b110110011111001100100 F
b10111110 N
b100110110011111001100100 G
b110110011111001100100 H
b10111110 P
b1011111000110110011111001100100 &
b1011111000110110011111001100100 *
b1011111000110110011111001100100 %
b1011111000110110011111001100100 )
1'
#70000
0'
#75000
b0 2
b1111111100000000000000000000000 !
b1111111100000000000000000000000 +
b1111111100000000000000000000000 7
b11111111111111111111111111111111 ]
b0 3
b0 W
b0 [
b100000000000000000000000 V
b100000000000000000000000 Z
1\
b0 8
b11111111 9
0:
b100000000000000000000000 U
b1111111 J
b100000000000000000000000 A
b1 K
b10000000 L
b11111111 I
b0 @
b100000000000000000000000 C
b1111111 M
b100000000000000000000000 >
b100000000000000000000000 ?
b100000000000000000000000 B
1,
b11111111 O
b100000000000000000000000 E
b0 F
b1111111 N
b100000000000000000000000 G
b0 H
b11111111 P
b111111100000000000000000000000 &
b111111100000000000000000000000 *
b1111111100000000000000000000000 %
b1111111100000000000000000000000 )
1'
#80000
0'
#85000
b1111111110000000000000000000001 !
b1111111110000000000000000000001 +
b1111111110000000000000000000001 7
b10000000000000000000001 2
b11111111111111111111111111111111 ]
b100000000000000000000000 V
b100000000000000000000000 Z
1\
b10000000000000000000001 8
b110000000000000000000001 U
b1111111 L
b10000000 J
b110000000000000000000001 A
b10000000 M
1-
0,
b110000000000000000000001 >
b110000000000000000000001 ?
b110000000000000000000001 B
b10000000 N
b110000000000000000000001 G
b10000000000000000000001 H
b1000000000000000000000000000000 &
b1000000000000000000000000000000 *
b1111111110000000000000000000001 %
b1111111110000000000000000000001 )
1'
#90000
0'
#95000
b0 2
b111111000000000000000000000000 !
b111111000000000000000000000000 +
b111111000000000000000000000000 7
b11111111111111111111111111111111 ]
b100000000000000000000000 V
b100000000000000000000000 Z
1\
b0 8
b1111110 9
b100000000000000000000000 U
b100000000000000000000000 A
b1111110 M
0-
b1 O
b100000000000000000000000 B
b10000000 C
b1111110 I
b1 K
b100000000000000000000000 >
b100000000000000000000000 ?
b0 @
b1111101 L
b1 J
b1111110 N
b10000000 G
b10000000 H
15
0;
b0 P
1=
b111111000000000000000000000000 &
b111111000000000000000000000000 *
b10000000 %
b10000000 )
1'
#100000
0'
#105000
b10 3
b10 W
b10 [
b110011001100110011010 2
1:
b11111111111111111111111111111111 ]
b1000000000000000000000 V
b1000000000000000000000 Z
1\
b100110011001100110011010 8
b1111110 9
b1100110011001100110100 U
b10111111000110011001100110011010 !
b10111111000110011001100110011010 +
b10111111000110011001100110011010 7
b1001100110011001100110100 A
b1111101 M
b100110011001100110011010 B
b1111101 I
b0 K
b1001100110011001100110100 >
b0 ?
b100110011001100110011010 @
b0 L
b1111101 J
16
b100110011001100110011010 C
b1111101 O
b100110011001100110011010 E
b110011001100110011010 F
1;
b1111101 N
1<
b100110011001100110011010 G
b110011001100110011010 H
05
b1111101 P
b111110100110011001100110011010 &
b111110100110011001100110011010 *
b111110100110011001100110011010 %
b111110100110011001100110011010 )
b1 (
b1 1
1'
#110000
0'
#115000
b10111111000000000000000000000000 !
b10111111000000000000000000000000 +
b10111111000000000000000000000000 7
1D
b0 2
b11111111111111111111111111111111 ]
b0 3
b0 W
b0 [
b0 V
b0 Z
0\
b100000000000000000000000 8
b0 U
b1000000000000000000000000 A
b1 L
b1111100 J
b1000000000000000000000000 >
b1100110011001100110100 ?
b11001100110011001100110 @
b110011001100110011001101 C
b1111100 M
b110011001100110011001101 E
b10011001100110011001101 F
b1111100 N
b111110010011001100110011001101 &
b111110010011001100110011001101 *
b10 (
b10 1
1'
#120000
0'
#125000
0D
b100000000000000000000000 V
b100000000000000000000000 Z
1\
b11111111111111111111111111111111 ]
b0 8
b1111110 9
0:
b100000000000000000000000 U
b1 K
b1 J
b100000000000000000000000 A
b1111101 L
b1111110 I
b111111000000000000000000000000 !
b111111000000000000000000000000 +
b111111000000000000000000000000 7
b0 @
b1 C
b1 M
b100000000000000000000000 >
b100000000000000000000000 ?
b100000000000000000000000 B
b1111110 O
06
b1 E
b1 F
14
b0 N
0<
b100000000000000000000000 G
b0 H
b1111110 P
0=
b1 &
b1 *
b111111000000000000000000000000 %
b111111000000000000000000000000 )
b11 (
b11 1
1'
#130000
0'
#135000
b10010000000000000000000 2
b1000010110010000000000000000000 !
b1000010110010000000000000000000 +
b1000010110010000000000000000000 7
1:
b11111111111111111111111111111111 ]
b100000000000000000000000 V
b100000000000000000000000 Z
1\
b110010000000000000000000 8
b10000101 9
b100100000000000000000000 U
b0 K
b110010000000000000000000 @
b10000100 J
b1100100000000000000000000 A
b0 L
b10000100 I
b110010000000000000000000 C
b10000100 M
b1100100000000000000000000 >
b0 ?
b110010000000000000000000 B
b10000100 O
b110010000000000000000000 E
b10010000000000000000000 F
04
b10000100 N
b110010000000000000000000 G
b10010000000000000000000 H
b10000100 P
b1000010010010000000000000000000 &
b1000010010010000000000000000000 *
b11000010010010000000000000000000 %
b11000010010010000000000000000000 )
b0 (
b0 1
1'
