coco_tb/dump.vcd
$date
	Fri Oct 25 14:18:12 2024
$end
$version
	Icarus Verilog
$end
$timescale
	1ps
$end
$scope module dec_swc_wrapper $end
$var wire 4 ! cycle_cnt [3:0] $end
$var wire 1 " hclk $end
$var wire 1 # hrstn $end
$var wire 1 $ ifu_dec_stall $end
$var wire 32 % inst_in [31:0] $end
$var wire 32 & inst_out [31:0] $end
$var wire 1 ' dec_xori $end
$var wire 1 ( dec_xor $end
$var wire 1 ) dec_upper_en $end
$var wire 1 * dec_sw $end
$var wire 1 + dec_sub $end
$var wire 1 , dec_store_en $end
$var wire 1 - dec_srli $end
$var wire 1 . dec_srl $end
$var wire 1 / dec_srai $end
$var wire 1 0 dec_sra $end
$var wire 1 1 dec_sltu $end
$var wire 1 2 dec_sltiu $end
$var wire 1 3 dec_slti $end
$var wire 1 4 dec_slt $end
$var wire 1 5 dec_slli $end
$var wire 1 6 dec_sll $end
$var wire 1 7 dec_sh $end
$var wire 1 8 dec_sb $end
$var wire 5 9 dec_rs2 [4:0] $end
$var wire 5 : dec_rs1 [4:0] $end
$var wire 1 ; dec_reg_en $end
$var wire 5 < dec_rd [4:0] $end
$var wire 1 = dec_ori $end
$var wire 1 > dec_or $end
$var wire 1 ? dec_lw $end
$var wire 1 @ dec_lui $end
$var wire 1 A dec_load_en $end
$var wire 1 B dec_lhu $end
$var wire 1 C dec_lh $end
$var wire 1 D dec_lbu $end
$var wire 1 E dec_lb $end
$var wire 1 F dec_jump_en $end
$var wire 1 G dec_jalr $end
$var wire 1 H dec_jal $end
$var wire 20 I dec_imm_type_u [19:0] $end
$var wire 12 J dec_imm_type_s [11:0] $end
$var wire 21 K dec_imm_type_j [20:0] $end
$var wire 12 L dec_imm_type_i [11:0] $end
$var wire 13 M dec_imm_type_b [12:0] $end
$var wire 1 N dec_imm_en $end
$var wire 1 O dec_fence_i $end
$var wire 1 P dec_fence $end
$var wire 1 Q dec_ecall $end
$var wire 1 R dec_ebreak $end
$var wire 1 S dec_csrrwi $end
$var wire 1 T dec_csrrw $end
$var wire 1 U dec_csrrsi $end
$var wire 1 V dec_csrrs $end
$var wire 1 W dec_csrrci $end
$var wire 1 X dec_csrrc $end
$var wire 1 Y dec_branch_en $end
$var wire 1 Z dec_bne $end
$var wire 1 [ dec_bltu $end
$var wire 1 \ dec_blt $end
$var wire 1 ] dec_bgeu $end
$var wire 1 ^ dec_bge $end
$var wire 1 _ dec_beq $end
$var wire 1 ` dec_auipc $end
$var wire 1 a dec_andi $end
$var wire 1 b dec_and $end
$var wire 1 c dec_addi $end
$var wire 1 d dec_add $end
$scope module dut $end
$var wire 4 e cycle_cnt [3:0] $end
$var wire 1 " hclk $end
$var wire 1 # hrstn $end
$var wire 1 $ ifu_dec_stall $end
$var wire 32 f inst_in [31:0] $end
$var wire 1 g mid_add $end
$var wire 1 h mid_addi $end
$var wire 1 i mid_and $end
$var wire 1 j mid_andi $end
$var wire 1 k mid_auipc $end
$var wire 1 l mid_beq $end
$var wire 1 m mid_bge $end
$var wire 1 n mid_bgeu $end
$var wire 1 o mid_blt $end
$var wire 1 p mid_bltu $end
$var wire 1 q mid_bne $end
$var wire 1 r mid_csrrc $end
$var wire 1 s mid_csrrci $end
$var wire 1 t mid_csrrs $end
$var wire 1 u mid_csrrsi $end
$var wire 1 v mid_csrrw $end
$var wire 1 w mid_csrrwi $end
$var wire 1 x mid_ebreak $end
$var wire 1 y mid_ecall $end
$var wire 1 z mid_fence $end
$var wire 1 { mid_fence_i $end
$var wire 1 | mid_jal $end
$var wire 1 } mid_jalr $end
$var wire 1 ~ mid_lb $end
$var wire 1 !" mid_lbu $end
$var wire 1 "" mid_lh $end
$var wire 1 #" mid_lhu $end
$var wire 1 $" mid_lui $end
$var wire 1 %" mid_lw $end
$var wire 1 &" mid_or $end
$var wire 1 '" mid_ori $end
$var wire 1 (" mid_sb $end
$var wire 1 )" mid_sh $end
$var wire 1 *" mid_sll $end
$var wire 1 +" mid_slli $end
$var wire 1 ," mid_slt $end
$var wire 1 -" mid_slti $end
$var wire 1 ." mid_sltiu $end
$var wire 1 /" mid_sltu $end
$var wire 1 0" mid_sra $end
$var wire 1 1" mid_srai $end
$var wire 1 2" mid_srl $end
$var wire 1 3" mid_srli $end
$var wire 1 4" mid_sub $end
$var wire 1 5" mid_sw $end
$var wire 1 6" mid_xor $end
$var wire 1 7" mid_xori $end
$var reg 1 d dec_add $end
$var reg 1 c dec_addi $end
$var reg 1 b dec_and $end
$var reg 1 a dec_andi $end
$var reg 1 ` dec_auipc $end
$var reg 1 _ dec_beq $end
$var reg 1 ^ dec_bge $end
$var reg 1 ] dec_bgeu $end
$var reg 1 \ dec_blt $end
$var reg 1 [ dec_bltu $end
$var reg 1 Z dec_bne $end
$var reg 1 Y dec_branch_en $end
$var reg 1 X dec_csrrc $end
$var reg 1 W dec_csrrci $end
$var reg 1 V dec_csrrs $end
$var reg 1 U dec_csrrsi $end
$var reg 1 T dec_csrrw $end
$var reg 1 S dec_csrrwi $end
$var reg 1 R dec_ebreak $end
$var reg 1 Q dec_ecall $end
$var reg 1 P dec_fence $end
$var reg 1 O dec_fence_i $end
$var reg 1 N dec_imm_en $end
$var reg 13 8" dec_imm_type_b [12:0] $end
$var reg 12 9" dec_imm_type_i [11:0] $end
$var reg 21 :" dec_imm_type_j [20:0] $end
$var reg 12 ;" dec_imm_type_s [11:0] $end
$var reg 20 <" dec_imm_type_u [19:0] $end
$var reg 1 H dec_jal $end
$var reg 1 G dec_jalr $end
$var reg 1 F dec_jump_en $end
$var reg 1 E dec_lb $end
$var reg 1 D dec_lbu $end
$var reg 1 C dec_lh $end
$var reg 1 B dec_lhu $end
$var reg 1 A dec_load_en $end
$var reg 1 @ dec_lui $end
$var reg 1 ? dec_lw $end
$var reg 1 > dec_or $end
$var reg 1 = dec_ori $end
$var reg 5 =" dec_rd [4:0] $end
$var reg 1 ; dec_reg_en $end
$var reg 5 >" dec_rs1 [4:0] $end
$var reg 5 ?" dec_rs2 [4:0] $end
$var reg 1 8 dec_sb $end
$var reg 1 7 dec_sh $end
$var reg 1 6 dec_sll $end
$var reg 1 5 dec_slli $end
$var reg 1 4 dec_slt $end
$var reg 1 3 dec_slti $end
$var reg 1 2 dec_sltiu $end
$var reg 1 1 dec_sltu $end
$var reg 1 0 dec_sra $end
$var reg 1 / dec_srai $end
$var reg 1 . dec_srl $end
$var reg 1 - dec_srli $end
$var reg 1 , dec_store_en $end
$var reg 1 + dec_sub $end
$var reg 1 * dec_sw $end
$var reg 1 ) dec_upper_en $end
$var reg 1 ( dec_xor $end
$var reg 1 ' dec_xori $end
$var reg 5 @" inst_11_7 [4:0] $end
$var reg 1 A" inst_11_7_equal_00000 $end
$var reg 3 B" inst_14_12 [2:0] $end
$var reg 1 C" inst_14_12_equal_000 $end
$var reg 1 D" inst_14_12_equal_001 $end
$var reg 1 E" inst_14_12_equal_010 $end
$var reg 1 F" inst_14_12_equal_011 $end
$var reg 1 G" inst_14_12_equal_100 $end
$var reg 1 H" inst_14_12_equal_101 $end
$var reg 1 I" inst_14_12_equal_110 $end
$var reg 1 J" inst_14_12_equal_111 $end
$var reg 5 K" inst_19_15 [4:0] $end
$var reg 1 L" inst_19_15_equal_00000 $end
$var reg 12 M" inst_31_20 [11:0] $end
$var reg 1 N" inst_31_20_equal_000000000000 $end
$var reg 1 O" inst_31_20_equal_000000000001 $end
$var reg 7 P" inst_31_25 [6:0] $end
$var reg 1 Q" inst_31_25_equal_0000000 $end
$var reg 1 R" inst_31_25_equal_0100000 $end
$var reg 4 S" inst_31_28 [3:0] $end
$var reg 1 T" inst_31_28_equal_0000 $end
$var reg 7 U" inst_6_0 [6:0] $end
$var reg 1 V" inst_6_0_equal_0000011 $end
$var reg 1 W" inst_6_0_equal_0001111 $end
$var reg 1 X" inst_6_0_equal_0010011 $end
$var reg 1 Y" inst_6_0_equal_0010111 $end
$var reg 1 Z" inst_6_0_equal_0100011 $end
$var reg 1 [" inst_6_0_equal_0110011 $end
$var reg 1 \" inst_6_0_equal_0110111 $end
$var reg 1 ]" inst_6_0_equal_1100011 $end
$var reg 1 ^" inst_6_0_equal_1100111 $end
$var reg 1 _" inst_6_0_equal_1101111 $end
$var reg 1 `" inst_6_0_equal_1110011 $end
$var reg 32 a" inst_out [31:0] $end
$upscope $end
$upscope $end
$enddefinitions $end
$comment Show the parameter values. $end
$dumpall
$end
#0
$dumpvars
b0 a"
0`"
0_"
0^"
0]"
0\"
0["
0Z"
0Y"
0X"
0W"
0V"
b0 U"
0T"
b0 S"
0R"
0Q"
b0 P"
0O"
0N"
b0 M"
0L"
b0 K"
0J"
0I"
0H"
0G"
0F"
0E"
0D"
0C"
b0 B"
0A"
b0 @"
b0 ?"
b0 >"
b0 ="
b0 <"
b0 ;"
b0 :"
b0 9"
b0 8"
07"
06"
05"
04"
03"
02"
01"
00"
0/"
0."
0-"
0,"
0+"
0*"
0)"
0("
0'"
0&"
0%"
0$"
0#"
0""
0!"
0~
0}
0|
0{
0z
0y
0x
0w
0v
0u
0t
0s
0r
0q
0p
0o
0n
0m
0l
0k
0j
0i
0h
0g
bz f
bz e
0d
0c
0b
0a
0`
0_
0^
0]
0\
0[
0Z
0Y
0X
0W
0V
0U
0T
0S
0R
0Q
0P
0O
0N
b0 M
b0 L
b0 K
b0 J
b0 I
0H
0G
0F
0E
0D
0C
0B
0A
0@
0?
0>
0=
b0 <
0;
b0 :
b0 9
08
07
06
05
04
03
02
01
00
0/
0.
0-
0,
0+
0*
0)
0(
0'
b0 &
bz %
z$
0#
1"
bz !
$end
#5000
0"
#10000
1"
b1011000001011110000110011 %
b1011000001011110000110011 f
b1 !
b1 e
1#
#15000
0"
#20000
b10 !
b10 e
b110011 U"
b11000 @"
b11 B"
b1 K"
b10110 M"
1"
#25000
0"
#30000
b11 !
b11 e
1/"
1["
1F"
1Q"
1T"
1"
#35000
0"
#40000
b100 !
b100 e
1"
#45000
0"
#50000
b1 !
b1 e
b1011000001011110000110011 &
b1011000001011110000110011 a"
11
1;
b1011000000010110 K
b1011000000010110 :"
b1011000001011 I
b1011000001011 <"
b11000 M
b11000 8"
b11000 J
b11000 ;"
b10110 L
b10110 9"
b11000 <
b11000 ="
b1 :
b1 >"
b10110 9
b10110 ?"
1"
#55000
0"
#60000
b10 !
b10 e
1"
#65000
0"
#70001
0/"
0;
b0 K
b0 :"
b0 I
b0 <"
b0 M
b0 8"
b0 J
b0 ;"
b0 L
b0 9"
b0 <
b0 ="
b0 :
b0 >"
b0 9
b0 ?"
b0 U"
b0 @"
b0 B"
b0 K"
b0 M"
b0 &
b0 a"
01
0["
0F"
0Q"
0T"
1"
0#
#75001
0"
#80001
1"
b10000111001010001101101110000011 %
b10000111001010001101101110000011 f
b1 !
b1 e
1#
#85001
0"
#90001
b10 !
b10 e
b11 U"
b10111 @"
b101 B"
b10001 K"
b100001110010 M"
b1000011 P"
b1000 S"
1"
#95001
0"
#100001
b11 !
b11 e
1#"
1V"
1H"
1"
#105001
0"
#110001
b100 !
b100 e
1"
#115001
0"
#120001
b1 !
b1 e
1B
b10000111001010001101101110000011 &
b10000111001010001101101110000011 a"
b110001101000001110010 K
b110001101000001110010 :"
b10000111001010001101 I
b10000111001010001101 <"
b1100001110110 M
b1100001110110 8"
b100001110111 J
b100001110111 ;"
b100001110010 L
b100001110010 9"
b10111 <
b10111 ="
b10001 :
b10001 >"
b10010 9
b10010 ?"
1A
1"
#125001
0"
#130001
b10 !
b10 e
1"
#135001
0"
#140002
0#"
b0 U"
b0 @"
b0 B"
b0 K"
b0 M"
b0 P"
b0 S"
b0 K
b0 :"
b0 I
b0 <"
b0 M
b0 8"
b0 J
b0 ;"
b0 L
b0 9"
b0 <
b0 ="
b0 :
b0 >"
b0 9
b0 ?"
0A
0V"
0H"
0B
b0 &
b0 a"
1"
0#
#145002
0"
#150002
1"
b11010011010010101001010010100011 %
b11010011010010101001010010100011 f
b1 !
b1 e
1#
#155002
0"
#160002
b10 !
b10 e
b100011 U"
b1001 @"
b1 B"
b10101 K"
b110100110100 M"
b1101001 P"
b1101 S"
1"
#165002
0"
#170002
b11 !
b11 e
1)"
1Z"
1D"
1"
#175002
0"
#180002
b100 !
b100 e
1"
#185002
0"
#190002
b1 !
b1 e
b11010011010010101001010010100011 &
b11010011010010101001010010100011 a"
17
1,
b110101001010100110100 K
b110101001010100110100 :"
b11010011010010101001 I
b11010011010010101001 <"
b1110100101000 M
b1110100101000 8"
b110100101001 J
b110100101001 ;"
b110100110100 L
b110100110100 9"
b1001 <
b1001 ="
b10101 :
b10101 >"
b10100 9
b10100 ?"
1"
#195002
0"
#200002
b10 !
b10 e
1"
#205002
0"
#210003
0)"
0,
b0 K
b0 :"
b0 I
b0 <"
b0 M
b0 8"
b0 J
b0 ;"
b0 L
b0 9"
b0 <
b0 ="
b0 :
b0 >"
b0 9
b0 ?"
b0 U"
b0 @"
b0 B"
b0 K"
b0 M"
b0 P"
b0 S"
b0 &
b0 a"
07
0Z"
0D"
1"
0#
#215003
0"
#220003
1"
b101000001111100110001001100011 %
b101000001111100110001001100011 f
b1 !
b1 e
1#
#225003
0"
#230003
b10 !
b10 e
b1100011 U"
b100 @"
b110 B"
b11100 K"
b1010000011 M"
b10100 P"
b10 S"
1"
#235003
0"
#240003
b11 !
b11 e
1p
1]"
1I"
1"
#245003
0"
#250003
b100 !
b100 e
1"
#255003
0"
#260003
b1 !
b1 e
1[
b101000001111100110001001100011 &
b101000001111100110001001100011 a"
b11100110101010000010 K
b11100110101010000010 :"
b101000001111100110 I
b101000001111100110 <"
b1010000100 M
b1010000100 8"
b1010000100 J
b1010000100 ;"
b1010000011 L
b1010000011 9"
b100 <
b100 ="
b11100 :
b11100 >"
b11 9
b11 ?"
1Y
1"
#265003
0"
#270003
b10 !
b10 e
1"
#275003
0"
#280004
0p
b0 U"
b0 @"
b0 B"
b0 K"
b0 M"
b0 P"
b0 S"
b0 K
b0 :"
b0 I
b0 <"
b0 M
b0 8"
b0 J
b0 ;"
b0 L
b0 9"
b0 <
b0 ="
b0 :
b0 >"
b0 9
b0 ?"
0Y
0]"
0I"
0[
b0 &
b0 a"
1"
0#
#285004
0"
#290004
1"
b11001100101101101000110110110111 %
b11001100101101101000110110110111 f
b1 !
b1 e
1#
#295004
0"
#300004
b10 !
b10 e
b110111 U"
b11011 @"
b1101 K"
b110011001011 M"
b1100110 P"
b1100 S"
1"
#305004
0"
#310004
b11 !
b11 e
1$"
1\"
1C"
1"
#315004
0"
#320004
b100 !
b100 e
1"
#325004
0"
#330004
b1 !
b1 e
b11001100101101101000110110110111 &
b11001100101101101000110110110111 a"
1@
1)
b101101000110011001010 K
b101101000110011001010 :"
b11001100101101101000 I
b11001100101101101000 <"
b1110011011010 M
b1110011011010 8"
b110011011011 J
b110011011011 ;"
b110011001011 L
b110011001011 9"
b11011 <
b11011 ="
b1101 :
b1101 >"
b1011 9
b1011 ?"
1"
#335004
0"
#340004
b10 !
b10 e
1"
#345004
0"
#350005
0)
b0 K
b0 :"
b0 I
b0 <"
b0 M
b0 8"
b0 J
b0 ;"
b0 L
b0 9"
b0 <
b0 ="
b0 :
b0 >"
b0 9
b0 ?"
b0 U"
b0 @"
b0 K"
b0 M"
b0 P"
b0 S"
b0 &
b0 a"
0@
0$"
0\"
0C"
1"
0#
#355005
0"
#360005
1"
b100000000101110101101111 %
b100000000101110101101111 f
b1 !
b1 e
1#
#365005
0"
#370005
b10 !
b10 e
b1101111 U"
b11010 @"
b101 B"
b1000 M"
1"
#375005
0"
#380005
b11 !
b11 e
1|
1_"
1H"
1Q"
1L"
1T"
1"
#385005
0"
#390005
b100 !
b100 e
1"
#395005
0"
#400005
b1 !
b1 e
1H
b100000000101110101101111 &
b100000000101110101101111 a"
b101000000001000 K
b101000000001000 :"
b100000000101 I
b100000000101 <"
b11010 M
b11010 8"
b11010 J
b11010 ;"
b1000 L
b1000 9"
b11010 <
b11010 ="
b1000 9
b1000 ?"
1F
1"
#405005
0"
#410005
b10 !
b10 e
1"
#415005
0"
#420006
b0 U"
b0 @"
b0 B"
b0 M"
b0 K
b0 :"
b0 I
b0 <"
b0 M
b0 8"
b0 J
b0 ;"
b0 L
b0 9"
b0 <
b0 ="
b0 9
b0 ?"
0F
0|
0_"
0H"
0Q"
0L"
0T"
0H
b0 &
b0 a"
1"
0#
#425006
0"
#430006
1"
b100001000000110110011 %
b100001000000110110011 f
b1 !
b1 e
1#
#435006
0"
#440006
b10 !
b10 e
b110011 U"
b11 @"
b1 K"
b1 M"
1"
#445006
0"
#450006
b11 !
b11 e
1g
1O"
1["
1C"
1Q"
1T"
1"
#455006
0"
#460006
b100 !
b100 e
1"
#465006
0"
#470006
b1 !
b1 e
b100001000000110110011 &
b100001000000110110011 a"
1d
1;
b1000100000000000 K
b1000100000000000 :"
b100001000 I
b100001000 <"
b100000000010 M
b100000000010 8"
b11 J
b11 ;"
b1 L
b1 9"
b11 <
b11 ="
b1 :
b1 >"
b1 9
b1 ?"
1"
#475006
0"
#480006
b10 !
b10 e
b10011 U"
b1 @"
1"
b100001000000010010011 %
b100001000000010010011 f
#485006
0"
#490006
b11 !
b11 e
0g
1h
0["
1X"
1"
#495006
0"
#500006
b100 !
b100 e
1"
#505006
0"
#510006
b1 !
b1 e
b100001000000010010011 &
b100001000000010010011 a"
0d
1c
0;
1N
b100000000000 M
b100000000000 8"
b1 J
b1 ;"
b1 <
b1 ="
1"
#515006
0"
#520006
b10 !
b10 e
1"
#525006
0"
#530006
b11 !
b11 e
1"
#535006
0"
#540006
b100 !
b100 e
1"
#545006
0"
#550006
b1 !
b1 e
1"
#555006
0"
#560006
b10 !
b10 e
1"
#565006
0"
#570006
b11 !
b11 e
1"
